Make grouping a first-class citizen in data quality checks | Emily Riederer
…
This check might provide a false sense of security.

However, what happens if we repeat this check at the actual grain of records which we need to be complete and subsequent calculations probably assume5 are complete? We find many individual units whose data does not appear appropriately recent.

full_data %>%
  group_by(CA, UNIT, SCP) %>%
  summarize(MAX = max(DATE)) %>%
  filter(MAX != "2020-04-10")

`summarise()` has grouped output by 'CA', 'UNIT'. You can override using the
`.groups` argument.

# A tibble: 54 x 4
# Groups:   CA, UNIT [24]
   CA    UNIT  SCP      MAX       
   <chr> <chr> <chr>    <date>    
 1 C021  R212  00-00-00 2020-01-06
 2 C021  R212  00-00-01 2020-01-06
 3 C021  R212  00-00-02 2020-01-06
 4 C021  R212  00-00-03 2020-01-06
 5 H007  R248  00-00-00 2020-03-07
 6 H007  R248  00-00-01 2020-02-15
 7 H007  R248  00-03-00 2020-02-15
 8 H007  R248  00-03-01 2020-02-15
 9 H007  R248  00-03-02 2020-02-15
10 H009  R235  00-03-04 2020-03-20
# i 44 more rows

Next, consider checks that are only expressible by group. One example of this is a monotonicity (value always increasing) check.

For example, ENTRIES is certainly not monotonically increasing at the row level. Each individual turnstile device is counting up according to its own usage. However, in an ideal world, these fields should be monotonic over time at the level of individual devices. (Spoiler alert: due to the maintenance, malfunction, and maxing-out scenarios mentioned above, it’s not.) Thus, this type of check is only possible at the grouped level.

full_data %>%
  group_by(CA, UNIT, SCP) %>%
  arrange(DATE, TIME) %>%
  mutate(LAG_ENTRIES = lag(ENTRIES)) %>%
  filter(ENTRIES < LAG_ENTRIES, DATE > '2020-01-25') %>%
  select(CA, UNIT, SCP, DATE, TIME, ENTRIES, LAG_ENTRIES) %>%
  arrange(ENTRIES - LAG_ENTRIES)

# A tibble: 19,281 x 7
# Groups:   CA, UNIT, SCP [262]
   CA    UNIT  SCP      DATE       TIME        ENTRIES LAG_ENTRIES
   <chr> <chr> <chr>    <date>     <hms>         <int>       <int>
 1 R231  R176  00-00-05 2020-03-09 75600 secs       99  1054865694
 2 R412  R146  00-03-03 2020-02-04 43200 secs 51627403   318991420
 3 N029  R333  01-00-00 2020-03-15 75600 secs       18   168628048
 4 R327  R361  01-06-00 2020-03-03 72000 secs   524397   135382887
 5 R312  R405  00-05-00 2020-02-16 57600 secs   131089   118174528
 6 N091  R029  02-05-00 2020-02-01 54000 secs   524368   118146213
 7 A025  R023  01-06-00 2020-03-04 82800 secs 11525743    67822764
 8 A025  R023  01-00-00 2020-03-04 82800 secs  5276291    28448967
 9 R238  R046  00-03-00 2020-02-15 82800 secs        5    16336060
10 R533  R055  00-03-04 2020-03-14 43200 secs      104    15209650
# i 19,271 more rows
…
